{
  "project_info": {
    "project_number": "130139031406",
    "project_id": "meraapp-db710",
    "storage_bucket": "meraapp-db710.appspot.com"
  },
  "client": [
    {
      "client_info": {
        "mobilesdk_app_id": "1:130139031406:android:2fabc393cdce5da790e37f",
        "android_client_info": {
          "package_name": "com.example.authentication"
        }
      },
      "oauth_client": [
        {
          "client_id": "130139031406-p577cvcfi62ioefcnm3ci3qi40v7h6pu.apps.googleusercontent.com",
          "client_type": 3
        }
      ],
      "api_key": [
        {
          "current_key": "AIzaSyCRQosgKULI8zuj7UiCf0oPWAXaGQtWsRc"
        }
      ],
      "services": {
        "appinvite_service": {
          "other_platform_oauth_client": [
            {
              "client_id": "130139031406-p577cvcfi62ioefcnm3ci3qi40v7h6pu.apps.googleusercontent.com",
              "client_type": 3
            }
          ]
        }
      }
    },
    {
      "client_info": {
        "mobilesdk_app_id": "1:130139031406:android:b3e2bdd1c74b44da90e37f",
        "android_client_info": {
          "package_name": "com.example.basicfirebase"
        }
      },
      "oauth_client": [
        {
          "client_id": "130139031406-p577cvcfi62ioefcnm3ci3qi40v7h6pu.apps.googleusercontent.com",
          "client_type": 3
        }
      ],
      "api_key": [
        {
          "current_key": "AIzaSyCRQosgKULI8zuj7UiCf0oPWAXaGQtWsRc"
        }
      ],
      "services": {
        "appinvite_service": {
          "other_platform_oauth_client": [
            {
              "client_id": "130139031406-p577cvcfi62ioefcnm3ci3qi40v7h6pu.apps.googleusercontent.com",
              "client_type": 3
            }
          ]
        }
      }
    },
    {
      "client_info": {
        "mobilesdk_app_id": "1:130139031406:android:1db48731062b509790e37f",
        "android_client_info": {
          "package_name": "com.example.meraapp"
        }
      },
      "oauth_client": [
        {
          "client_id": "130139031406-p577cvcfi62ioefcnm3ci3qi40v7h6pu.apps.googleusercontent.com",
          "client_type": 3
        }
      ],
      "api_key": [
        {
          "current_key": "AIzaSyCRQosgKULI8zuj7UiCf0oPWAXaGQtWsRc"
        }
      ],
      "services": {
        "appinvite_service": {
          "other_platform_oauth_client": [
            {
              "client_id": "130139031406-p577cvcfi62ioefcnm3ci3qi40v7h6pu.apps.googleusercontent.com",
              "client_type": 3
            }
          ]
        }
      }
    }
  ],
  "configuration_version": "1"
}